{
  "images" : [
    {
      "filename" : "EF22B45F-232A-4A80-9C75-AC02A46A4CC4_4_5005_c.jpeg",
      "idiom" : "universal",
      "scale" : "1x"
    },
    {
      "idiom" : "universal",
      "scale" : "2x"
    },
    {
      "idiom" : "universal",
      "scale" : "3x"
    }
  ],
  "info" : {
    "author" : "xcode",
    "version" : 1
  }
}
